торговля 0.0 0.0
консорциум 0.0 0.0
декан 0.0 0.0
приемлемость 0.0 0.0
мощный 0.0 0.0
тоже 0.0 0.0
обеспечение 0.0 0.0
ваш 0.0 0.0
перенести 0.0 0.0
удачно 0.0 0.0
напоминание 0.0 0.0
несколько 0.0 0.0
личный 0.0 0.0
ценность 0.0 0.0
фан 0.0 0.0
корпорация 0.0 0.0
указ 0.0 0.0
рейтинг 0.0 0.0
защита 0.0 0.0
сомнение 0.0 0.0
регулировщик 0.0 0.0
предупреждение 0.0 0.0
комитет 0.0 0.0
положение 0.0 0.0
заложить 0.0 0.0
сломать 0.0 0.0
депутат 0.0 0.0
доход 0.0 0.0
разрешать 0.0 0.0
когда 0.0 0.0
резюмировать 0.0 0.0
абсолютно 0.0 0.0
редактировать 0.0 0.0
предпочтение 0.0 0.0
мясной 0.0 0.0
публично 0.0 0.0
доступный 0.0 0.0
премия 0.0 0.0
отделение 0.0 0.0
российско 0.0 0.0
заместитель 0.0 0.0
медиа 0.0 0.0
оборудование 0.0 0.0
спортсменка 0.0 0.0
множество 0.0 0.0
манга 0.0 0.0
атрибут 0.0 0.0
поиск 0.0 0.0
аналитика 0.0 0.0
браузер 0.0 0.0
обозрение 0.0 0.0
свободно 0.0 0.0
хозяйственный 0.0 0.0
наверняка 0.0 0.0
фронт 0.0 0.0
будущий 0.0 0.0
промышленность 0.0 0.0
многолетний 0.0 0.0
обнаружить 0.0 0.0
тыс 0.0 0.0
лично 0.0 0.0
постоянно 0.0 0.0
учёный 0.0 0.0
молотобоец 0.0 0.0
обмен 0.0 0.0
разработка 0.0 0.0
как 0.0 0.0
промышленно 0.0 0.0
училище 0.0 0.0
экономико 0.0 0.0
строительный 0.0 0.0
преподавать 0.0 0.0
поддержание 0.0 0.0
ноябрь 0.0 0.0
рассмотрение 0.0 0.0
заблокировать 0.0 0.0
такой 0.0 0.0
двойной 0.0 0.0
российский 0.0 0.0
также 0.0 0.0
экон 0.0 0.0
инжиниринг 0.0 0.0
стать 0.0 0.0
создавать 0.0 0.0
всё 0.0 0.0
принципиально 0.0 0.0
после 0.0 0.0
обсуждение 0.0 0.0
океан 0.0 0.0
пед 0.0 0.0
разметка 0.0 0.0
оформить 0.0 0.0
получить 0.0 0.0
муниципальный 0.0 0.0
эксперт 0.0 0.0
округа 0.0 0.0
вставить 0.0 0.0
падеж 0.0 0.0
кредит 0.0 0.0
развиваться 0.0 0.0
оказаться 0.0 0.0
недопустимо 0.0 0.0
пер 0.0 0.0
ресторан 0.0 0.0
выбрать 0.0 0.0
депо 0.0 0.0
комментировать 0.0 0.0
образный 0.0 0.0
синтез 0.0 0.0
пособие 0.0 0.0
спешно 0.0 0.0
сопроводить 0.0 0.0
понадобиться 0.0 0.0
далее 0.0 0.0
специальность 0.0 0.0
доблестный 0.0 0.0
неформально 0.0 0.0
переходной 0.0 0.0
размещать 0.0 0.0
год 0.0 0.0
общественный 0.0 0.0
ещё 0.0 0.0
просить 0.0 0.0
член 0.0 0.0
указать 0.0 0.0
оно 0.0 0.0
пионер 0.0 0.0
должность 0.0 0.0
теоретик 0.0 0.0
канал 0.0 0.0
перераб 0.0 0.0
аграрный 0.0 0.0
спортсмен 0.0 0.0
организатор 0.0 0.0
просвещение 0.0 0.0
пост 0.0 0.0
показательный 0.0 0.0
профсоюзный 0.0 0.0
атака 0.0 0.0
рескома 0.0 0.0
нечасто 0.0 0.0
модель 0.0 0.0
звание 0.0 0.0
ред 0.0 0.0
доблесть 0.0 0.0
шахматистка 0.0 0.0
компания 0.0 0.0
удаление 0.0 0.0
воздерживаться 0.0 0.0
тьма 0.0 0.0
освобождение 0.0 0.0
классный 0.0 0.0
кредитный 0.0 0.0
среди 0.0 0.0
неоднократно 0.0 0.0
есть 0.0 0.0
писатель 0.0 0.0
возможно 0.0 0.0
присутствовать 0.0 0.0
досрочно 0.0 0.0
военный 0.0 0.0
ознаменование 0.0 0.0
решать 0.0 0.0
наполовину 0.0 0.0
создатель 0.0 0.0
правка 0.0 0.0
сводиться 0.0 0.0
давать 0.0 0.0
руководитель 0.0 0.0
проверить 0.0 0.0
соискание 0.0 0.0
возглавить 0.0 0.01337972286998853
потом 0.0 0.0
планирование 0.0 0.0
экологически 0.0 0.0
без 0.0 0.0
венгерский 0.0 0.0
любой 0.0 0.0
рентабельность 0.0 0.0
иной 0.0 0.0
млрд 0.0 0.0
избиратель 0.0 0.0
даже 0.0 0.0
юриспруденция 0.0 0.0
полгода 0.0 0.0
понять 0.0 0.0
справка 0.0 0.0
попросить 0.0 0.0
инспектор 0.0 0.0
точно 0.0 0.0
трудно 0.0 0.0
идеология 0.0 0.0
регулярно 0.0 0.0
память 0.0 0.0
предложить 0.0 0.0
отображение 0.0 0.0
кратко 0.0 0.0
значимость 0.0 0.0
нет 0.0 0.0
отец 0.0 0.0
псевдоним 0.0 0.0
заочный 0.0 0.0
официально 0.0 0.0
отдельно 0.0 0.0
кавалер 0.0 0.0
зеркало 0.0 0.0
дивизия 0.0 0.0
сутки 0.0 0.0
процедура 0.0 0.0
хорошо 0.0 0.0
вопрос 0.0 0.0
умение 0.0 0.0
авторитет 0.0 0.0
статус 0.0 0.0
подход 0.0 0.0
гражданин 0.0 0.0
горняк 0.0 0.0
весомый 0.0 0.0
дважды 0.0 0.0
регулирование 0.0 0.0
объяснение 0.0 0.0
брат 0.0 0.0
работать 0.0 0.0
она 0.0 0.0
решение 0.0 0.0
комиссар 0.0 0.0
оптимально 0.0 0.0
никогда 0.0 0.0
существо 0.0 0.0
содержать 0.0 0.0
основной 0.0 0.0
повышение 0.0 0.0
выпускница 0.0 0.0
лауреат 0.0 0.0
стрелковый 0.0 0.0
поскольку 0.0 0.0
уже 0.0 0.0
взаимодействие 0.0 0.0
рапорт 0.0 0.0
капитан 0.0 0.0
журналист 0.0 0.0
опасный 0.0 0.0
чтобы 0.0 0.0
старое 0.0 0.0
литературный 0.0 0.0
сообщество 0.0 0.0
мать 0.0 0.0
автоматически 0.0 0.0
система 0.0 0.0
около 0.0 0.0
только 0.0 0.0
золотой 0.0 0.0
партийный 0.0 0.0
осторожно 0.0 0.0
мир 0.0 0.0
дело 0.0 0.0
значительный 0.0 0.0
экономия 0.0 0.0
единогласно 0.0 0.0
принцип 0.0 0.0
предпринимат 0.0 0.0
армия 0.0 0.0
долг 0.0 0.0
временной 0.0 0.0
доклад 0.0 0.0
форум 0.0 0.0
модернизация 0.0 0.0
практика 0.0 0.0
дублирование 0.0 0.0
непредвзято 0.0 0.0
заново 0.0 0.0
прежде 0.0 0.0
филиал 0.0 0.0
следовать 0.0 0.0
генерал 0.0 0.0
розничный 0.0 0.0
существовать 0.0 0.0
округ 0.0 0.0
портить 0.0 0.0
нарушение 0.0 0.0
штат 0.0 0.0
гораздо 0.0 0.0
защититься 0.0 0.0
информация 0.0 0.0
воспользоваться 0.0 0.0
четверг 0.0 0.0
начальник 0.0 0.0
организация 0.0 0.0
кандидат 0.0 0.0
треста 0.0 0.0
магистратура 0.0 0.0
обобщение 0.0 0.0
председатель 0.0 0.0
куда 0.0 0.0
обобщить 0.0 0.0
риск 0.0 0.0
историко 0.0 0.0
доктор 0.0 0.0
бюро 0.0 0.0
труд 0.0 0.0
момент 0.0 0.0
сеть 0.0 0.0
предмет 0.0 0.0
философ 0.0 0.0
область 0.0 0.0
ограничение 0.0 0.0
банковский 0.0 0.0
планово 0.0 0.0
содержаться 0.0 0.0
разгром 0.0 0.0
интернет 0.0 0.0
второй 0.0 0.0
против 0.0 0.0
совместитель 0.0 0.0
большой 0.0 0.0
аспирант 0.0 0.0
критический 0.0 0.0
каждый 0.0 0.0
пищевой 0.0 0.0
якорь 0.0 0.0
себя 0.0 0.0
подобно 0.0 0.0
действительно 0.0 0.0
директор 0.0 0.0
вандализм 0.0 0.0
подарок 0.0 0.0
безопасность 0.0 0.0
объективно 0.0 0.0
кладбище 0.0 0.0
выбор 0.0 0.0
слушатель 0.0 0.0
инженер 0.0 0.0
веб 0.0 0.0
кто 0.0 0.0
ниже 0.0 0.0
вместе 0.0 0.0
вариант 0.0 0.0
решить 0.0 0.0
общество 0.0 0.0
часто 0.0 0.0
шесть 0.0 0.0
англ 0.0 0.0
запас 0.0 0.0
технология 0.0 0.0
многие 0.0 0.0
аудит 0.0 0.0
ранее 0.0 0.0
мэр 0.0 0.0
состав 0.0 0.0
страховой 0.0 0.0
волостной 0.0 0.0
определить 0.0 0.0
обычно 0.0 0.0
затем 0.0 0.005743355786616549
механика 0.0 0.0
экзамен 0.0 0.0
сноска 0.0 0.0
спустя 0.0 0.0
инициатор 0.0 0.0
государственно 0.0 0.0
поведенческий 0.0 0.0
летний 0.0 0.0
верность 0.0 0.0
официальный 0.0 0.0
иногда 0.0 0.0
производство 0.0 0.0
добросовестный 0.0 0.0
доцент 0.0 0.0
немецко 0.0 0.0
английский 0.0 0.0
обвинение 0.0 0.0
ради 0.0 0.0
казахстанский 0.0 0.0
экз 0.0 0.0
параллельно 0.0 0.0
ценный 0.0 0.0
функциональность 0.0 0.0
опять 0.0 0.0
докл 0.0 0.0
уважительно 0.0 0.0
обязательно 0.0 0.0
счетоведение 0.0 0.0
фактически 0.0 0.0
теоретический 0.0 0.0
технолог 0.0 0.0
политолог 0.0 0.0
департамент 0.0 0.0
страх 0.0 0.0
плата 0.0 0.0
заниматься 0.0 0.0
осуществляться 0.0 0.0
обновление 0.0 0.0
помочь 0.0 0.0
имя 0.0 0.0
при 0.0 0.00042107234643350556
наиболее 0.0 0.0
философско 0.0 0.0
патриотический 0.0 0.0
маркированный 0.0 0.0
правовой 0.0 0.0
помогать 0.0 0.0
юрист 0.0 0.0
литературно 0.0 0.0
так 0.0 0.0
тип 0.0 0.0
какой 0.0 0.0
вообще 0.0 0.0
уважение 0.0 0.0
низкоскоростной 0.0 0.0
энциклопедически 0.0 0.0
путём 0.0 0.0
печатать 0.0 0.0
про 0.0 0.0
если 0.0 0.0
участник 0.0 0.0
механизм 0.0 0.0
друг 0.0 0.0
врач 0.0 0.0
сопредседатель 0.0 0.0
навигация 0.0 0.0
строитель 0.0 0.0
поднять 0.0 0.0
научно 0.0 0.0
включение 0.0 0.0
быть 0.0 0.0
резюме 0.0 0.0
прийти 0.0 0.0
гимназия 0.0 0.0
статс 0.0 0.0
монтажник 0.0 0.0
можно 0.0 0.0
точный 0.0 0.0
сотрудник 0.0 0.0
нарушать 0.0 0.0
признание 0.0 0.0
просветительский 0.0 0.0
апрель 0.0 0.0
организационно 0.0 0.0
оскорбление 0.0 0.0
кружка 0.0 0.0
обратно 0.0 0.0
голосовать 0.0 0.0
место 0.0 0.0
свой 0.0 0.0
действительный 0.0 0.0
необходимо 0.0 0.0
уроженка 0.0 0.0
обладатель 0.0 0.0
проблема 0.0 0.0
ускоренный 0.0 0.0
шахматный 0.0 0.0
коммерческий 0.0 0.0
тот 0.0 0.0
новый 0.0 0.0
топ 0.0 0.0
июль 0.0 0.0
макароны 0.0 0.0
текст 0.0 0.0
там 0.0 0.0
семнадцать 0.0 0.0
проект 0.0 0.0
абилитация 0.0 0.0
исторический 0.0 0.0
исчерпывающий 0.0 0.0
библиотека 0.0 0.0
академия 0.0 0.0
штаб 0.0 0.0
польский 0.0 0.0
кузница 0.0 0.0
аппарат 0.0 0.0
быстро 0.0 0.0
хозяйство 0.0 0.0
белорусский 0.0 0.0
магистерский 0.0 0.0
начинать 0.0 0.0
институт 0.0 0.0013504914301122838
подходить 0.0 0.0
диплом 0.0 0.0
откуда 0.0 0.0
тем 0.0 0.0
педагог 0.0 0.0
миссия 0.0 0.0
чувство 0.0 0.0
приказ 0.0 0.0
инструмент 0.0 0.0
управление 0.0 0.0
теоретико 0.0 0.0
кафедра 0.0 0.0
контент 0.0 0.0
мясокомбинат 0.0 0.0
валютный 0.0 0.0
подряд 0.0 0.0
циркуляр 0.0 0.0
управленец 0.0 0.0
учесть 0.0 0.0
устроение 0.0 0.0
город 0.0 0.0
равно 0.0 0.0
являться 0.0 0.0
обращение 0.0 0.0
никак 0.0 0.0
много 0.0 0.0
эстрадный 0.0 0.0
удалять 0.0 0.0
высокий 0.0 0.0
свидетель 0.0 0.0
ужесточаться 0.0 0.0
политик 0.0 0.0
осень 0.0 0.0
союз 0.0 0.0
кроме 0.0 0.0
перевод 0.0 0.0
помощь 0.0 0.0
использоваться 0.0 0.0
идея 0.0 0.0
правительственный 0.0 0.0
колледж 0.0 0.0
письмо 0.0 0.0
офицер 0.0 0.0
радикально 0.0 0.0
строго 0.0 0.0
алюминий 0.0 0.0
где 0.0 0.0
течение 0.0 0.0
здоровый 0.0 0.0
случай 0.0 0.0
турнир 0.0 0.0
замещение 0.0 0.0
критик 0.0 0.0
перед 0.0 0.0
файловый 0.0 0.0
ныне 0.0 0.0
очень 0.0 0.0
вуз 0.0 0.0
выполнение 0.0 0.0
подлог 0.0 0.0
внести 0.0 0.0
дипломат 0.0 0.0
реклама 0.0 0.0
социально 0.0 0.0
студент 0.0 0.0
отказ 0.0 0.0
проблематика 0.0 0.0
отношение 0.0 0.0
зам 0.0 0.0
образование 0.0 0.0
продвижение 0.0 0.0
красный 0.0 0.0
актёр 0.0 0.0
пытаться 0.0 0.0
политология 0.0 0.0
банкир 0.0 0.020386453139142696
край 0.0 0.0
именно 0.0 0.0
главный 0.0 0.0
который 0.0 0.0
тайна 0.0 0.0
вторник 0.0 0.0
совет 0.0 0.0
засл 0.0 0.0
профессионально 0.0 0.0
глобальный 0.0 0.0
обработка 0.0 0.0
героизм 0.0 0.0
семья 0.0 0.0
сам 0.0 0.0
системотехник 0.0 0.0
иметь 0.0 0.0
майор 0.0 0.0
падение 0.0 0.0
история 0.0 0.0
консультатнт 0.0 0.0
требование 0.0 0.0
активно 0.0 0.0
изображение 0.0 0.0
сохранение 0.0 0.0
бесплатный 0.0 0.0
смысл 0.0 0.0
одновременно 0.0 0.0
международник 0.0 0.0
розыск 0.0 0.0
либо 0.0 0.0
инвестиционный 0.0 0.0
обучение 0.0 0.0
нагрудный 0.0 0.0
отмена 0.0 0.0
исполнительный 0.0 0.0
временно 0.0 0.0
посредничество 0.0 0.0
сообщить 0.0 0.0
полковник 0.0 0.0
опыт 0.0 0.0
соответствовать 0.0 0.0
декабрь 0.0 0.0
представительство 0.0 0.0
включить 0.0 0.0
чёрный 0.0 0.0
фарси 0.0 0.0
экономический 0.0 0.0
антропология 0.0 0.0
просто 0.0 0.0
экономика 0.0 0.0
разместить 0.0 0.0
внутри 0.0 0.0
название 0.0 0.0
переводчик 0.0 0.0
содержимое 0.0 0.0
изменить 0.0 0.0
полёт 0.0 0.0
голос 0.0 0.0
реформировать 0.0 0.0
изд 0.0 0.0
двенадцать 0.0 0.0
сначала 0.0 0.0
полк 0.0 0.0
немецкий 0.0 0.0
лишь 0.0 0.0
совсем 0.0 0.0
поведение 0.0 0.0
количество 0.0 0.0
добровольно 0.0 0.0
проведение 0.0 0.0
назло 0.0 0.0
точка 0.0 0.0
синтаксис 0.0 0.0
укрепление 0.0 0.0
вплоть 0.0 0.0
финансы 0.0 0.0
чрезмерно 0.0 0.0
переход 0.0 0.0
группа 0.0 0.0094339622
попеременно 0.0 0.0
расцениваться 0.0 0.0
мера 0.0 0.0
между 0.0 0.0
поместить 0.0 0.0
доверие 0.0 0.0
резко 0.0 0.0
оформление 0.0 0.0
дать 0.0 0.0
включая 0.0 0.0
соучастие 0.0 0.0
описание 0.0 0.0
жизнь 0.0 0.0
функция 0.0 0.0
мнение 0.0 0.0
определённый 0.0 0.0
пединститут 0.0 0.0
локальный 0.0 0.0
занести 0.0 0.0
предприниматель 0.0 0.012058459109182459
испр 0.0 0.0
правило 0.0 0.0
исправлять 0.0 0.0
курс 0.0 0.0
что 0.0 0.0
через 0.0 0.0
служба 0.0 0.0
это 0.0 0.0
уйти 0.0 0.0
продублировать 0.0 0.0
менее 0.0 0.0
ошибка 0.0 0.0
борьба 0.0 0.0
актуально 0.0 0.0
проректор 0.0 0.0
краткий 0.0 0.0
отраслевой 0.0 0.0
почётный 0.0 0.0
казначей 0.0 0.0
британский 0.0 0.0
брокер 0.0 0.0
известно 0.0 0.0
сопровождать 0.0 0.0
отсюда 0.0 0.0
командование 0.0 0.0
четыре 0.0 0.0
оба 0.0 0.0
писать 0.0 0.0
над 0.0 0.0
чат 0.0 0.0
автор 0.0 0.0
рекомендательный 0.0 0.0
горный 0.0 0.0
контроль 0.0 0.0
три 0.0 0.0
армянский 0.0 0.0
оператор 0.0 0.0
править 0.0 0.0
принять 0.0 0.0
тов 0.0 0.0
короткий 0.0 0.0
согласно 0.0 0.0
июнь 0.0 0.0
смело 0.0 0.0
счёт 0.0 0.0
кибернетика 0.0 0.0
заблуждение 0.0 0.0
техника 0.0 0.012058459109182459
обсудить 0.0 0.0
предположительно 0.0 0.0
анализ 0.0 0.0
авиадивизия 0.0 0.0
продовольствие 0.0 0.0
отправной 0.0 0.0
роман 0.0 0.0
январь 0.0 0.0
клуб 0.0 0.0
архив 0.0 0.0
например 0.0 0.0
индустриальный 0.0 0.0
под 0.0 0.0
важно 0.0 0.0
непринятый 0.0 0.0
или 0.0 0.0
обвинитель 0.0 0.0
довольствие 0.0 0.0
рассматривать 0.0 0.0
премьер 0.0 0.0
дом 0.0 0.0
диалог 0.0 0.0
старший 0.0 0.0
работник 0.0 0.0
копия 0.0 0.0
содержание 0.0 0.0
вид 0.0 0.0
лингвист 0.0 0.0
каратэ 0.0 0.0
историк 0.0 0.0
почасовик 0.0 0.0
квалификация 0.0 0.0
достигнуть 0.0 0.0
размещение 0.0 0.0
финансист 0.0 0.016386467758057726
ссылаться 0.0 0.0
консультант 0.0 0.0
деятель 0.0 0.0
элита 0.0 0.0
финансовый 0.0 0.0
принимать 0.0 0.0
необходимость 0.0 0.0
последний 0.0 0.0
раздел 0.0 0.0
прапорщик 0.0 0.0
качество 0.0 0.0
определение 0.0 0.0
допустить 0.0 0.0
языкознание 0.0 0.0
фамилия 0.0 0.0
инфо 0.0 0.0
взаимодействовать 0.0 0.0
метро 0.0 0.0
единство 0.0 0.0
март 0.0 0.0
сайт 0.0 0.0
государственный 0.0 0.0
лейтенант 0.0 0.0
очередной 0.0 0.0
центральный 0.0 0.0
приговор 0.0 0.0
фак 0.0 0.0
копировать 0.0 0.0
время 0.0 0.0
исключительно 0.0 0.0
внедрение 0.0 0.0
украинский 0.0 0.0
основное 0.0 0.0
поддерживать 0.0 0.0
боевой 0.0 0.0
польза 0.0 0.0
класс 0.0 0.0
первый 0.0 0.0
университет 0.0 0.0
палата 0.0 0.0
изменение 0.0 0.0
род 0.0 0.01247101967828539
статистика 0.0 0.0
посол 0.0 0.0
восемь 0.0 0.0
оценочный 0.0 0.0
техникум 0.0 0.0
выверенность 0.0 0.0
финансово 0.0 0.0021416586217393166
непропорционально 0.0 0.0
издательство 0.0 0.0
экс 0.0 0.0
ведущий 0.0 0.0
более 0.0 0.0
создание 0.0 0.0
объяснять 0.0 0.0
невозможно 0.0 0.0
общественно 0.0 0.0
умный 0.0 0.0
романо 0.0 0.0
ношение 0.0 0.0
каталог 0.0 0.0
вряд 0.0 0.0
всегда 0.0 0.0
ассистент 0.0 0.0
лист 0.0 0.0
один 0.0 0.0
конфликт 0.0 0.0
телеканал 0.0 0.0
подполковник 0.0 0.0
число 0.0 0.0
превышать 0.0 0.0
протест 0.0 0.0
соглашение 0.0 0.0
процесс 0.0 0.0
международный 0.0 0.0
возбуждение 0.0 0.0
реализация 0.0 0.0
статья 0.0 0.0
аниме 0.0 0.0
плюс 0.0 0.0
географический 0.0 0.0
работа 0.0 0.0
отдел 0.0 0.004193248498131034
ряд 0.0 0.0
вести 0.0 0.0
менеджмент 0.0 0.0
мужество 0.0 0.0
адрес 0.0 0.0
кредитование 0.0 0.0
сразу 0.0 0.0
руководство 0.0 0.0
механик 0.0 0.0
относительно 0.0 0.0
представитель 0.0 0.0
модифицировать 0.0 0.0
добавить 0.0 0.0
чин 0.0 0.0
публицистика 0.0 0.0
единственно 0.0 0.0
уроженец 0.0 0.0
кризис 0.0 0.0
жыл 0.0 0.0
агент 0.0 0.0
честь 0.0 0.0
трижды 0.0 0.0
исследование 0.0 0.0
рассмотреть 0.0 0.0
организовать 0.0 0.0
деятельность 0.0 0.006952505558118971
штатный 0.0 0.0
поработать 0.0 0.0
заочно 0.0 0.0
вводить 0.0 0.0
летопись 0.0 0.0
фонд 0.0 0.013884039866117725
предметный 0.0 0.0
шоу 0.0 0.02662196297828539
передача 0.0 0.0
пункт 0.0 0.0
утверждение 0.0 0.0
октябрь 0.0 0.0
туда 0.0 0.0
благодаря 0.0 0.0
млн 0.0 0.0
кооперативный 0.0 0.0
наличие 0.0 0.0
отсутствие 0.0 0.0
полка 0.0 0.0
банк 0.0 0.008423939540170686
однако 0.0 0.0
жена 0.0 0.0
информационно 0.0 0.0
для 0.0 0.0
редактор 0.0 0.0
ссылка 0.0 0.0
завод 0.0 0.0
предлагать 0.0 0.0
переплёт 0.0 0.0
полностью 0.0 0.0
срок 0.0 0.0
хотя 0.0 0.0
продажа 0.0 0.0
нередко 0.0 0.0
специалист 0.0 0.0
почти 0.0 0.0
почему 0.0 0.0
опрос 0.0 0.0
несмотря 0.0 0.0
министр 0.0 0.0
исследователь 0.0 0.0
потенциально 0.0 0.0
социальный 0.0 0.0
привести 0.0 0.0
областной 0.0 0.0
секретарь 0.0 0.0
грузино 0.0 0.0
оказывать 0.0 0.0
представление 0.0 0.0
они 0.0 0.0
страница 0.0 0.0
магистр 0.0 0.0
счетоводство 0.0 0.0
статмография 0.0 0.0
эконом 0.0 0.0
функционирование 0.0 0.0
рядовой 0.0 0.0
ревизор 0.0 0.0
интервью 0.0 0.0
кино 0.0 0.0
улучшать 0.0 0.0
видеохостинг 0.0 0.0
помощник 0.0 0.0
корреспондент 0.0 0.0
убежище 0.0 0.0
крайне 0.0 0.0
сестра 0.0 0.0
заведовать 0.0 0.0
юридический 0.0 0.0
возможность 0.0 0.0
вызвать 0.0 0.0
список 0.0 0.0
предоставить 0.0 0.0
взятие 0.0 0.0
вскоре 0.0 0.0
верно 0.0 0.0
профессор 0.0 0.0
война 0.0 0.0
май 0.0 0.0
налогообложение 0.0 0.0
диалектико 0.0 0.0
положительный 0.0 0.0
особо 0.0 0.0
таки 0.0 0.0
опубликовать 0.0 0.0
правильно 0.0 0.0
независимый 0.0 0.0
общеэкономический 0.0 0.0
спец 0.0 0.0
школа 0.0 0.0
вклад 0.0 0.0
отвечать 0.0 0.0
выполнить 0.0 0.0
нельзя 0.0 0.0
сделать 0.0 0.0
диссертация 0.0 0.0
дивизион 0.0 0.0
указание 0.0 0.0
актуальность 0.0 0.0
перечень 0.0 0.0
монография 0.0 0.0
делать 0.0 0.0
благодарность 0.0 0.0
этот 0.0 0.0
раз 0.0 0.0
способ 0.0 0.0
методология 0.0 0.0
издание 0.0 0.0
химико 0.0 0.0
распространять 0.0 0.0
культура 0.0 0.0
точность 0.0 0.0
февраль 0.0 0.0
улучшение 0.0 0.0
сочный 0.0 0.0
пожалуйста 0.0 0.0
добавлять 0.0 0.0
увидеть 0.0 0.0
спам 0.0 0.0
вносить 0.0 0.0
выбирать 0.0 0.0
библиотечный 0.0 0.0
направление 0.0 0.0
чем 0.0 0.0
очередь 0.0 0.0
скрыть 0.0 0.0
поэтому 0.0 0.0
онлайн 0.0 0.0
актриса 0.0 0.0
координация 0.0 0.0
образ 0.0 0.0
комплекс 0.0 0.0
характеристика 0.0 0.0
формально 0.0 0.0
читать 0.0 0.0
степень 0.0 0.0
покинуть 0.0 0.0
советник 0.0 0.0
свод 0.0 0.0
штурман 0.0 0.0
непрерывный 0.0 0.0
движение 0.0 0.0
гуманитарный 0.0 0.0
военачальникк 0.0 0.0
наблюдение 0.0 0.0
право 0.0 0.0
средне 0.0 0.0
финансирование 0.0 0.0
теоретически 0.0 0.0
потому 0.0 0.0
источник 0.0 0.0
отличие 0.0 0.0
русский 0.0 0.0
отменить 0.0 0.0
энциклопедия 0.0 0.0
грамота 0.0 0.0
шаблон 0.0 0.0
период 0.0 0.0
действовать 0.0 0.0
непременно 0.0 0.0
найти 0.0 0.0
уровень 0.0 0.0
докторантура 0.0 0.0
знак 0.0 0.0
последовательно 0.0 0.0
эссе 0.0 0.0
обращаться 0.0 0.0
известный 0.0 0.0
вновь 0.0 0.0
думка 0.0 0.0
подписываться 0.0 0.0
думать 0.0 0.0
материал 0.0 0.0
дата 0.0 0.0
снижение 0.0 0.0
узкоспециализированный 0.0 0.0
причина 0.0 0.0
девятый 0.0 0.0
усердие 0.0 0.0
читатель 0.0 0.0
нужно 0.0 0.0
запрос 0.0 0.0
прямо 0.0 0.0
особенно 0.0 0.0
награда 0.0 0.0
факультет 0.0 0.006235509839142695
данный 0.0 0.0
глава 0.0 0.0
преступник 0.0 0.0
орден 0.0 0.0
язык 0.0 0.0
свыше 0.0 0.0
менеджер 0.0 0.0
цифровой 0.0 0.0
третий 0.0 0.0
медаль 0.0 0.0
версия 0.0 0.0
наряду 0.0 0.0
гос 0.0 0.0
непосредственно 0.0 0.0
центр 0.0 0.0
биологический 0.0 0.0
преподаватель 0.0 0.0
использовать 0.0 0.0
допустимость 0.0 0.0
назначение 0.0 0.0
научный 0.0 0.0
технический 0.0 0.0
инструктор 0.0 0.0
домой 0.0 0.0
элемент 0.0 0.0
свободный 0.0 0.0
отменять 0.0 0.0
открываться 0.0 0.0
выпуск 0.0 0.0
отзыв 0.0 0.0
часть 0.0 0.0
развитие 0.0 0.0
аул 0.0 0.0
мировой 0.0 0.0
пять 0.0 0.0
соавтор 0.0 0.0
действие 0.0 0.0
два 0.0 0.0
логик 0.0 0.0
президент 0.0 0.0
повторно 0.0 0.0
доп 0.0 0.0
успешно 0.0 0.0
конкретный 0.0 0.0
аспирантура 0.0 0.0
строительство 0.0 0.0
холдинг 0.0 0.0
публицист 0.0 0.0
регистрация 0.0 0.0
впоследствии 0.0 0.0
суд 0.0 0.0
сейчас 0.0 0.0
экономист 0.0 0.0
редактирование 0.0 0.0
стиль 0.0 0.0
позволить 0.0 0.0
причинение 0.0 0.0
технико 0.0 0.0
микрорайон 0.0 0.0
поставить 0.0 0.0
слишком 0.0 0.0
бизнес 0.0 0.0
сервер 0.0 0.0
конференция 0.0 0.0
диссертационный 0.0 0.0
ректор 0.0 0.0
войсковой 0.0 0.0
мужской 0.0 0.0
значительно 0.0 0.0
надёжный 0.0 0.0
распоряжение 0.0 0.0
учебник 0.0 0.0
использование 0.0 0.0
стажировка 0.0 0.0
технологический 0.0 0.0
объединение 0.0 0.0
здесь 0.0 0.0
указывать 0.0 0.0
внештатный 0.0 0.0
академик 0.0 0.0
лай 0.0 0.0
философия 0.0 0.0
посещать 0.0 0.0
наш 0.0 0.0
информативность 0.0 0.0
мастер 0.0 0.0
партбюро 0.0 0.0
полковой 0.0 0.0
вместо 0.0 0.0
сделка 0.0 0.0
маю 0.0 0.0
участие 0.0 0.0
вступить 0.0 0.0
аэропорт 0.0 0.0
генеральный 0.0 0.0
беспристрастно 0.0 0.0
программно 0.0 0.0
иметься 0.0 0.0
убирать 0.0 0.0
собрание 0.0 0.0
другой 0.0 0.0
политический 0.0 0.0
политехнический 0.0 0.0
избегать 0.0 0.0
путь 0.0 0.0
привлечь 0.0 0.0
полномочный 0.0 0.0
рабочий 0.0 0.0
городской 0.0 0.0
советский 0.0 0.0
снова 0.0 0.0
рудник 0.0 0.0
задавать 0.0 0.0
нефтяной 0.0 0.0
ответственность 0.0 0.0
артиллерийско 0.0 0.0
машиностроительный 0.0 0.0
излагать 0.0 0.0
учёт 0.0 0.0
осознанно 0.0 0.0
педагогический 0.0 0.0
издательский 0.0 0.0
заменить 0.0 0.0
организационный 0.0 0.0
певец 0.0 0.0
бухгалтер 0.0 0.0
данные 0.0 0.0
экспорт 0.0 0.0
краткость 0.0 0.0
проф 0.0 0.0
доступ 0.0 0.0
китайский 0.0 0.0
плановый 0.0 0.0
поступать 0.0 0.0
политика 0.0 0.0
роль 0.0 0.0
приводить 0.0 0.0
учитель 0.0 0.0
редактироваться 0.0 0.0
командир 0.0 0.0
трудовой 0.0 0.0
товарный 0.0 0.0
